101.1 kPa (758.0 mmHg) 20.7 C
101.1 kPa (758.0 mmHg) 20.7 C
101.1 kPa (758.2 mmHg) 20.9 C
101.1 kPa (758.5 mmHg) 21.1 C
101.0 kPa (757.8 mmHg) 21.3 C
101.1 kPa (758.5 mmHg) 21.1 C
101.0 kPa (757.8 mmHg) 21.3 C
101.0 kPa (757.8 mmHg) 21.3 C
101.1 kPa (758.2 mmHg) 20.9 C
100.9 kPa (756.8 mmHg) 21.3 C
101.2 kPa (759.1 mmHg) 21.4 C
100.8 kPa (756.0 mmHg) 21.4 C
101.1 kPa (758.0 mmHg) 22.0 C
101.0 kPa (757.7 mmHg) 21.8 C
100.9 kPa (757.1 mmHg) 21.4 C
101.1 kPa (758.0 mmHg) 22.0 C
101.0 kPa (757.7 mmHg) 21.8 C
101.2 kPa (759.0 mmHg) 22.0 C
101.2 kPa (759.3 mmHg) 22.2 C
101.1 kPa (758.2 mmHg) 22.2 C
101.1 kPa (758.1 mmHg) 22.8 C
101.0 kPa (757.8 mmHg) 22.6 C
101.1 kPa (758.1 mmHg) 22.8 C
101.0 kPa (757.4 mmHg) 22.9 C
101.0 kPa (757.4 mmHg) 22.9 C
101.1 kPa (758.1 mmHg) 22.8 C
101.1 kPa (758.1 mmHg) 22.8 C
100.9 kPa (756.8 mmHg) 22.6 C
101.1 kPa (758.1 mmHg) 22.8 C
101.1 kPa (758.1 mmHg) 22.8 C
101.2 kPa (759.3 mmHg) 23.5 C
101.1 kPa (758.2 mmHg) 23.5 C
101.1 kPa (758.1 mmHg) 22.8 C
101.0 kPa (757.6 mmHg) 23.1 C
101.3 kPa (759.6 mmHg) 23.7 C
101.0 kPa (757.5 mmHg) 23.7 C
101.1 kPa (758.5 mmHg) 23.7 C
101.1 kPa (758.4 mmHg) 24.3 C
100.8 kPa (756.3 mmHg) 24.3 C
101.1 kPa (758.5 mmHg) 25.0 C
101.0 kPa (757.5 mmHg) 25.0 C
100.8 kPa (756.4 mmHg) 25.0 C
100.9 kPa (756.5 mmHg) 25.7 C
100.9 kPa (756.5 mmHg) 25.7 C
101.0 kPa (757.3 mmHg) 24.3 C
101.1 kPa (758.4 mmHg) 24.3 C
101.3 kPa (759.5 mmHg) 25.0 C
101.0 kPa (757.3 mmHg) 24.3 C
101.0 kPa (757.8 mmHg) 23.9 C
101.1 kPa (758.2 mmHg) 23.5 C
101.1 kPa (758.2 mmHg) 23.5 C
101.1 kPa (758.2 mmHg) 23.5 C
100.8 kPa (756.2 mmHg) 23.5 C
101.1 kPa (758.2 mmHg) 23.5 C
100.8 kPa (756.3 mmHg) 22.9 C
101.0 kPa (757.4 mmHg) 22.9 C
101.1 kPa (758.4 mmHg) 22.9 C
101.0 kPa (757.4 mmHg) 22.9 C
100.9 kPa (757.1 mmHg) 22.8 C
101.0 kPa (757.4 mmHg) 22.9 C
101.0 kPa (757.4 mmHg) 22.9 C
101.0 kPa (757.4 mmHg) 22.9 C
101.1 kPa (758.4 mmHg) 22.9 C
100.9 kPa (756.8 mmHg) 22.6 C
100.9 kPa (757.1 mmHg) 22.8 C
101.0 kPa (757.8 mmHg) 22.6 C
101.0 kPa (757.8 mmHg) 22.6 C
100.9 kPa (756.8 mmHg) 22.6 C
100.9 kPa (756.5 mmHg) 22.4 C
101.1 kPa (758.1 mmHg) 22.8 C
101.0 kPa (757.2 mmHg) 22.2 C
101.0 kPa (757.2 mmHg) 22.2 C
100.8 kPa (756.2 mmHg) 22.2 C
101.0 kPa (757.8 mmHg) 22.6 C
100.9 kPa (757.1 mmHg) 22.8 C
101.0 kPa (757.5 mmHg) 22.4 C
101.1 kPa (758.5 mmHg) 22.4 C
101.0 kPa (757.2 mmHg) 22.2 C
101.0 kPa (757.8 mmHg) 22.6 C
101.0 kPa (757.5 mmHg) 22.4 C
100.9 kPa (756.9 mmHg) 22.0 C
101.0 kPa (757.2 mmHg) 22.2 C
100.9 kPa (756.9 mmHg) 22.0 C
101.1 kPa (758.2 mmHg) 22.2 C
101.1 kPa (758.0 mmHg) 22.0 C
101.1 kPa (758.2 mmHg) 22.2 C
101.1 kPa (758.0 mmHg) 22.0 C
101.1 kPa (758.0 mmHg) 22.0 C
101.2 kPa (759.0 mmHg) 22.0 C
101.1 kPa (758.0 mmHg) 22.0 C
101.2 kPa (759.0 mmHg) 22.0 C
101.1 kPa (758.0 mmHg) 22.0 C
101.0 kPa (757.4 mmHg) 21.6 C
101.1 kPa (758.0 mmHg) 22.0 C
101.2 kPa (758.7 mmHg) 21.8 C
101.2 kPa (759.0 mmHg) 22.0 C
101.0 kPa (757.7 mmHg) 21.8 C
101.0 kPa (757.4 mmHg) 21.6 C
101.2 kPa (759.0 mmHg) 22.0 C
101.1 kPa (758.1 mmHg) 21.4 C
101.1 kPa (758.1 mmHg) 21.4 C
101.1 kPa (758.1 mmHg) 21.4 C
101.0 kPa (757.8 mmHg) 21.3 C
101.2 kPa (759.1 mmHg) 21.4 C
101.0 kPa (757.8 mmHg) 21.3 C
101.1 kPa (758.2 mmHg) 20.9 C
101.1 kPa (758.2 mmHg) 20.9 C
101.2 kPa (759.3 mmHg) 20.9 C
101.2 kPa (759.0 mmHg) 20.7 C
101.1 kPa (758.0 mmHg) 20.7 C
101.2 kPa (759.0 mmHg) 20.7 C
101.2 kPa (759.0 mmHg) 20.7 C
101.1 kPa (758.5 mmHg) 21.1 C
101.1 kPa (758.7 mmHg) 20.5 C
101.1 kPa (758.4 mmHg) 20.3 C
101.1 kPa (758.7 mmHg) 20.5 C
101.1 kPa (758.7 mmHg) 20.5 C
101.1 kPa (758.4 mmHg) 20.3 C
101.1 kPa (758.4 mmHg) 20.3 C
101.1 kPa (758.7 mmHg) 20.5 C
101.1 kPa (758.1 mmHg) 20.1 C
101.1 kPa (758.4 mmHg) 20.3 C
101.1 kPa (758.1 mmHg) 20.1 C
101.0 kPa (757.4 mmHg) 20.3 C
101.1 kPa (758.4 mmHg) 20.3 C
101.1 kPa (758.1 mmHg) 20.1 C
101.0 kPa (757.8 mmHg) 20.0 C
101.1 kPa (758.1 mmHg) 20.1 C
101.1 kPa (758.4 mmHg) 20.3 C
101.1 kPa (758.4 mmHg) 20.3 C
101.1 kPa (758.1 mmHg) 20.1 C
101.0 kPa (757.5 mmHg) 19.8 C
101.1 kPa (758.1 mmHg) 20.1 C
101.0 kPa (757.5 mmHg) 19.8 C
100.9 kPa (756.5 mmHg) 19.8 C
101.0 kPa (757.8 mmHg) 20.0 C
100.9 kPa (757.1 mmHg) 20.1 C
101.0 kPa (757.5 mmHg) 19.8 C
101.0 kPa (757.8 mmHg) 20.0 C
101.0 kPa (757.8 mmHg) 20.0 C
101.0 kPa (757.8 mmHg) 20.0 C
101.0 kPa (757.5 mmHg) 19.8 C
101.0 kPa (757.8 mmHg) 20.0 C
101.0 kPa (757.5 mmHg) 19.8 C
101.1 kPa (758.2 mmHg) 19.6 C
101.0 kPa (757.2 mmHg) 19.6 C
101.0 kPa (757.2 mmHg) 19.6 C
101.0 kPa (757.2 mmHg) 19.6 C
101.0 kPa (757.2 mmHg) 19.6 C
101.0 kPa (757.2 mmHg) 19.6 C
101.0 kPa (757.2 mmHg) 19.6 C
101.0 kPa (757.2 mmHg) 19.6 C
100.9 kPa (756.9 mmHg) 19.4 C
100.9 kPa (756.9 mmHg) 19.4 C
100.9 kPa (756.9 mmHg) 19.4 C
100.9 kPa (756.9 mmHg) 19.4 C
101.0 kPa (757.6 mmHg) 19.2 C
100.8 kPa (756.3 mmHg) 19.0 C
101.0 kPa (757.3 mmHg) 19.0 C
100.9 kPa (757.0 mmHg) 18.8 C
100.8 kPa (756.3 mmHg) 19.0 C
100.9 kPa (756.6 mmHg) 19.2 C
100.9 kPa (757.0 mmHg) 18.8 C
100.8 kPa (756.3 mmHg) 19.0 C
100.9 kPa (757.0 mmHg) 18.8 C
100.8 kPa (755.7 mmHg) 18.6 C
100.8 kPa (755.7 mmHg) 18.6 C
100.8 kPa (756.2 mmHg) 18.3 C
101.1 kPa (758.1 mmHg) 18.8 C
100.9 kPa (756.5 mmHg) 18.5 C
101.0 kPa (757.8 mmHg) 18.6 C
101.0 kPa (757.5 mmHg) 18.5 C
100.8 kPa (756.2 mmHg) 18.3 C
100.8 kPa (755.9 mmHg) 18.1 C
100.9 kPa (757.2 mmHg) 18.3 C
100.9 kPa (756.9 mmHg) 18.1 C
100.8 kPa (755.9 mmHg) 18.1 C
100.9 kPa (756.9 mmHg) 18.1 C
100.9 kPa (757.0 mmHg) 17.5 C
101.0 kPa (757.3 mmHg) 17.7 C
101.0 kPa (757.3 mmHg) 17.7 C
100.9 kPa (757.0 mmHg) 17.5 C
100.9 kPa (757.0 mmHg) 17.5 C
100.9 kPa (757.1 mmHg) 17.0 C
101.1 kPa (758.3 mmHg) 16.4 C
100.9 kPa (756.7 mmHg) 16.0 C
100.8 kPa (756.1 mmHg) 15.7 C
100.8 kPa (756.4 mmHg) 15.8 C
101.1 kPa (758.1 mmHg) 15.7 C
101.1 kPa (758.1 mmHg) 15.7 C
101.0 kPa (757.5 mmHg) 15.3 C
101.0 kPa (757.2 mmHg) 15.1 C
100.9 kPa (756.9 mmHg) 14.9 C
101.1 kPa (757.9 mmHg) 14.9 C
101.1 kPa (757.9 mmHg) 14.9 C
101.0 kPa (757.6 mmHg) 14.7 C
101.2 kPa (759.3 mmHg) 15.1 C
101.1 kPa (758.2 mmHg) 15.1 C
100.9 kPa (756.9 mmHg) 14.9 C
101.1 kPa (758.5 mmHg) 15.3 C
100.9 kPa (756.9 mmHg) 14.9 C
101.1 kPa (758.2 mmHg) 15.1 C
101.0 kPa (757.5 mmHg) 15.3 C
101.0 kPa (757.5 mmHg) 15.3 C
101.1 kPa (758.2 mmHg) 15.1 C
100.9 kPa (756.9 mmHg) 14.9 C
101.1 kPa (757.9 mmHg) 14.9 C
101.3 kPa (759.6 mmHg) 15.3 C
101.1 kPa (757.9 mmHg) 14.9 C
101.2 kPa (759.0 mmHg) 14.9 C
101.0 kPa (757.6 mmHg) 14.7 C
101.2 kPa (759.0 mmHg) 14.9 C
101.1 kPa (757.9 mmHg) 14.9 C
101.1 kPa (758.7 mmHg) 14.7 C
101.0 kPa (757.6 mmHg) 14.7 C
101.0 kPa (757.6 mmHg) 14.7 C
101.3 kPa (759.6 mmHg) 15.3 C
101.1 kPa (757.9 mmHg) 14.9 C
101.1 kPa (758.2 mmHg) 15.1 C
101.1 kPa (758.2 mmHg) 15.1 C
101.1 kPa (758.5 mmHg) 15.3 C
101.2 kPa (759.3 mmHg) 15.1 C
101.1 kPa (758.5 mmHg) 15.3 C
101.3 kPa (759.6 mmHg) 15.3 C
101.0 kPa (757.8 mmHg) 15.5 C
101.2 kPa (759.3 mmHg) 15.1 C
101.2 kPa (759.0 mmHg) 14.9 C
101.4 kPa (760.3 mmHg) 15.1 C
101.3 kPa (759.6 mmHg) 15.3 C
101.4 kPa (760.9 mmHg) 15.5 C
101.2 kPa (759.0 mmHg) 14.9 C
101.2 kPa (759.3 mmHg) 15.1 C
101.3 kPa (759.6 mmHg) 15.3 C
101.2 kPa (759.3 mmHg) 15.1 C
101.3 kPa (759.6 mmHg) 15.3 C
101.3 kPa (759.6 mmHg) 15.3 C
101.3 kPa (759.9 mmHg) 15.5 C
101.2 kPa (759.3 mmHg) 15.1 C
101.3 kPa (760.2 mmHg) 15.7 C
101.3 kPa (759.9 mmHg) 15.5 C
101.3 kPa (759.9 mmHg) 15.5 C
101.3 kPa (759.6 mmHg) 15.3 C
101.3 kPa (759.6 mmHg) 15.3 C
101.3 kPa (759.9 mmHg) 15.5 C
101.3 kPa (760.2 mmHg) 15.7 C
101.3 kPa (759.9 mmHg) 15.5 C
101.2 kPa (758.8 mmHg) 15.5 C
101.2 kPa (759.1 mmHg) 15.7 C
101.3 kPa (759.9 mmHg) 15.5 C
101.2 kPa (758.7 mmHg) 16.0 C
101.2 kPa (758.7 mmHg) 16.0 C
101.2 kPa (759.0 mmHg) 16.2 C
101.1 kPa (758.4 mmHg) 15.8 C
101.3 kPa (759.7 mmHg) 16.0 C
101.2 kPa (759.0 mmHg) 16.2 C
101.2 kPa (759.0 mmHg) 16.2 C
101.2 kPa (759.3 mmHg) 16.4 C
101.2 kPa (759.3 mmHg) 16.4 C
101.2 kPa (759.3 mmHg) 16.4 C
101.3 kPa (759.9 mmHg) 16.8 C
101.1 kPa (758.5 mmHg) 17.1 C
101.3 kPa (759.9 mmHg) 16.8 C
101.3 kPa (759.9 mmHg) 16.8 C
101.1 kPa (758.5 mmHg) 17.1 C
101.4 kPa (760.2 mmHg) 17.0 C
101.2 kPa (759.2 mmHg) 17.0 C
101.2 kPa (759.2 mmHg) 17.0 C
101.2 kPa (759.1 mmHg) 17.5 C
101.2 kPa (759.1 mmHg) 17.5 C
101.2 kPa (759.1 mmHg) 17.5 C
101.2 kPa (759.4 mmHg) 17.7 C
101.3 kPa (759.7 mmHg) 17.9 C
101.2 kPa (759.4 mmHg) 17.7 C
101.2 kPa (759.4 mmHg) 17.7 C
101.2 kPa (759.4 mmHg) 17.7 C
101.3 kPa (759.7 mmHg) 17.9 C
101.2 kPa (759.1 mmHg) 17.5 C
101.3 kPa (759.7 mmHg) 17.9 C
101.3 kPa (759.7 mmHg) 17.9 C
101.1 kPa (758.5 mmHg) 18.5 C
101.1 kPa (758.2 mmHg) 18.3 C
101.1 kPa (758.5 mmHg) 18.5 C
101.3 kPa (759.5 mmHg) 18.5 C
101.1 kPa (758.2 mmHg) 18.3 C
101.2 kPa (758.9 mmHg) 18.1 C
101.2 kPa (759.2 mmHg) 18.3 C
101.3 kPa (759.5 mmHg) 18.5 C
101.3 kPa (759.8 mmHg) 18.6 C
101.2 kPa (759.1 mmHg) 18.8 C
101.4 kPa (760.4 mmHg) 19.0 C
101.2 kPa (759.4 mmHg) 19.0 C
101.3 kPa (760.0 mmHg) 19.4 C
101.3 kPa (760.0 mmHg) 19.4 C
101.2 kPa (759.1 mmHg) 18.8 C
101.2 kPa (759.4 mmHg) 19.0 C
101.2 kPa (759.4 mmHg) 19.0 C
101.2 kPa (759.1 mmHg) 18.8 C
101.3 kPa (760.0 mmHg) 19.4 C
101.3 kPa (760.0 mmHg) 19.4 C
101.4 kPa (760.3 mmHg) 19.6 C
101.4 kPa (760.9 mmHg) 20.0 C
101.2 kPa (758.8 mmHg) 20.0 C
101.2 kPa (759.3 mmHg) 19.6 C
101.4 kPa (760.6 mmHg) 19.8 C
101.2 kPa (758.8 mmHg) 20.0 C
101.4 kPa (760.6 mmHg) 19.8 C
101.3 kPa (759.6 mmHg) 19.8 C
101.4 kPa (760.3 mmHg) 19.6 C
101.3 kPa (760.0 mmHg) 19.4 C
101.1 kPa (758.7 mmHg) 19.2 C
101.2 kPa (758.8 mmHg) 20.0 C
101.5 kPa (761.2 mmHg) 20.1 C
101.2 kPa (758.8 mmHg) 20.0 C
101.4 kPa (760.3 mmHg) 20.9 C
101.2 kPa (759.4 mmHg) 20.3 C
101.4 kPa (760.9 mmHg) 21.3 C
101.3 kPa (760.0 mmHg) 20.7 C
101.3 kPa (760.0 mmHg) 20.7 C
101.4 kPa (760.9 mmHg) 21.3 C
101.5 kPa (761.2 mmHg) 21.4 C
101.6 kPa (762.2 mmHg) 22.8 C
101.4 kPa (760.8 mmHg) 21.8 C
101.3 kPa (759.9 mmHg) 21.3 C
101.4 kPa (760.3 mmHg) 20.9 C
101.3 kPa (759.9 mmHg) 21.3 C
101.3 kPa (759.7 mmHg) 21.8 C
101.3 kPa (759.9 mmHg) 21.3 C
101.5 kPa (761.3 mmHg) 20.9 C
101.3 kPa (760.0 mmHg) 20.7 C
101.3 kPa (759.7 mmHg) 20.5 C
101.3 kPa (759.7 mmHg) 21.8 C
101.3 kPa (759.6 mmHg) 21.1 C
101.3 kPa (760.0 mmHg) 20.7 C
101.3 kPa (760.0 mmHg) 20.7 C
101.5 kPa (761.0 mmHg) 20.7 C
101.3 kPa (760.0 mmHg) 20.7 C
101.3 kPa (760.0 mmHg) 20.7 C
101.4 kPa (760.3 mmHg) 22.2 C
101.4 kPa (760.9 mmHg) 21.3 C
101.4 kPa (760.3 mmHg) 20.9 C
101.5 kPa (761.5 mmHg) 20.3 C
101.3 kPa (760.2 mmHg) 21.4 C
101.3 kPa (760.2 mmHg) 21.4 C
101.4 kPa (760.3 mmHg) 20.9 C
101.4 kPa (760.6 mmHg) 21.1 C
101.4 kPa (760.3 mmHg) 20.9 C
101.3 kPa (760.0 mmHg) 22.0 C
101.3 kPa (759.7 mmHg) 23.1 C
101.2 kPa (759.3 mmHg) 22.2 C
101.3 kPa (760.2 mmHg) 21.4 C
101.3 kPa (759.7 mmHg) 20.5 C
101.3 kPa (759.7 mmHg) 20.5 C
101.2 kPa (759.4 mmHg) 20.3 C
101.2 kPa (759.4 mmHg) 20.3 C
101.4 kPa (760.9 mmHg) 20.0 C
101.5 kPa (761.5 mmHg) 20.3 C
101.4 kPa (760.9 mmHg) 20.0 C
101.4 kPa (760.9 mmHg) 20.0 C
101.3 kPa (760.2 mmHg) 20.1 C
101.4 kPa (760.9 mmHg) 20.0 C
101.4 kPa (760.9 mmHg) 20.0 C
101.4 kPa (760.9 mmHg) 20.0 C
101.4 kPa (760.6 mmHg) 19.8 C
101.4 kPa (760.6 mmHg) 19.8 C
101.4 kPa (760.3 mmHg) 19.6 C
101.4 kPa (760.3 mmHg) 19.6 C
101.5 kPa (761.0 mmHg) 19.4 C
101.4 kPa (760.3 mmHg) 19.6 C
101.4 kPa (760.3 mmHg) 19.6 C
101.3 kPa (759.7 mmHg) 19.2 C
101.4 kPa (760.4 mmHg) 19.0 C
101.3 kPa (759.7 mmHg) 19.2 C
101.4 kPa (760.7 mmHg) 19.2 C
101.4 kPa (760.7 mmHg) 19.2 C
101.4 kPa (760.4 mmHg) 19.0 C
101.5 kPa (761.2 mmHg) 18.8 C
101.5 kPa (761.2 mmHg) 18.8 C
101.4 kPa (760.9 mmHg) 18.6 C
101.7 kPa (762.5 mmHg) 19.0 C
101.5 kPa (761.2 mmHg) 18.8 C
101.5 kPa (761.6 mmHg) 18.5 C
101.5 kPa (761.6 mmHg) 18.5 C
101.5 kPa (761.3 mmHg) 18.3 C
101.5 kPa (761.3 mmHg) 18.3 C
101.5 kPa (761.3 mmHg) 18.3 C
101.6 kPa (762.0 mmHg) 18.1 C
101.6 kPa (762.0 mmHg) 18.1 C
101.5 kPa (761.4 mmHg) 17.7 C
101.6 kPa (761.7 mmHg) 17.9 C
101.7 kPa (762.7 mmHg) 17.9 C
101.7 kPa (762.4 mmHg) 17.7 C
101.8 kPa (763.5 mmHg) 17.7 C
101.7 kPa (762.4 mmHg) 17.7 C
101.6 kPa (762.1 mmHg) 17.5 C
101.8 kPa (763.6 mmHg) 17.1 C
101.6 kPa (762.3 mmHg) 17.0 C
101.6 kPa (762.3 mmHg) 17.0 C
101.7 kPa (762.9 mmHg) 17.3 C
101.6 kPa (762.3 mmHg) 17.0 C
101.7 kPa (763.0 mmHg) 16.8 C
101.5 kPa (761.7 mmHg) 16.6 C
101.6 kPa (762.0 mmHg) 16.8 C
101.6 kPa (762.0 mmHg) 16.8 C
101.6 kPa (762.0 mmHg) 16.8 C
101.7 kPa (763.0 mmHg) 16.8 C
101.7 kPa (762.7 mmHg) 16.6 C
101.5 kPa (761.7 mmHg) 16.6 C
101.8 kPa (763.4 mmHg) 16.4 C
101.6 kPa (762.4 mmHg) 16.4 C
101.6 kPa (762.1 mmHg) 16.2 C
101.7 kPa (763.1 mmHg) 16.2 C
101.8 kPa (763.4 mmHg) 16.4 C
101.9 kPa (764.4 mmHg) 16.4 C
101.9 kPa (764.1 mmHg) 16.2 C
101.9 kPa (764.1 mmHg) 16.2 C
101.8 kPa (763.5 mmHg) 15.8 C
101.9 kPa (764.1 mmHg) 16.2 C
101.8 kPa (763.8 mmHg) 16.0 C
101.8 kPa (763.5 mmHg) 15.8 C
101.8 kPa (763.5 mmHg) 15.8 C
101.8 kPa (763.5 mmHg) 15.8 C
101.8 kPa (763.8 mmHg) 16.0 C
101.8 kPa (763.5 mmHg) 15.8 C
101.8 kPa (763.5 mmHg) 15.8 C
101.8 kPa (763.8 mmHg) 16.0 C
101.7 kPa (762.9 mmHg) 15.5 C
101.8 kPa (763.2 mmHg) 15.7 C
101.8 kPa (763.5 mmHg) 15.8 C
101.8 kPa (763.5 mmHg) 15.8 C
101.8 kPa (763.2 mmHg) 15.7 C
101.8 kPa (763.5 mmHg) 15.8 C
101.8 kPa (763.2 mmHg) 15.7 C
101.7 kPa (762.9 mmHg) 15.5 C
101.7 kPa (762.9 mmHg) 15.5 C
101.7 kPa (762.9 mmHg) 15.5 C
101.9 kPa (763.9 mmHg) 15.5 C
101.8 kPa (763.6 mmHg) 15.3 C
101.9 kPa (764.4 mmHg) 15.1 C
101.7 kPa (763.0 mmHg) 14.9 C
101.8 kPa (763.3 mmHg) 15.1 C
101.8 kPa (763.3 mmHg) 15.1 C
101.7 kPa (763.0 mmHg) 14.9 C
101.7 kPa (763.0 mmHg) 14.9 C
101.7 kPa (762.7 mmHg) 14.7 C
102.0 kPa (765.1 mmHg) 14.9 C
101.9 kPa (764.1 mmHg) 14.9 C
101.7 kPa (762.7 mmHg) 14.7 C
101.7 kPa (763.0 mmHg) 14.9 C
101.7 kPa (763.0 mmHg) 14.9 C
101.7 kPa (763.0 mmHg) 14.9 C
102.0 kPa (764.8 mmHg) 14.7 C
101.9 kPa (764.2 mmHg) 14.3 C
101.6 kPa (762.4 mmHg) 14.5 C
101.6 kPa (762.1 mmHg) 14.3 C
101.7 kPa (762.8 mmHg) 14.2 C
101.8 kPa (763.8 mmHg) 14.7 C
101.8 kPa (763.9 mmHg) 14.2 C
101.7 kPa (762.8 mmHg) 14.2 C
101.6 kPa (761.8 mmHg) 14.2 C
101.8 kPa (763.9 mmHg) 14.2 C
101.9 kPa (764.6 mmHg) 14.0 C
101.7 kPa (763.1 mmHg) 14.3 C
101.8 kPa (763.6 mmHg) 14.0 C
101.8 kPa (763.6 mmHg) 14.0 C
101.7 kPa (763.0 mmHg) 13.6 C
101.6 kPa (762.2 mmHg) 13.8 C
102.0 kPa (764.9 mmHg) 14.2 C
101.6 kPa (762.2 mmHg) 13.8 C
101.8 kPa (763.6 mmHg) 14.0 C
101.9 kPa (764.3 mmHg) 13.8 C
101.8 kPa (763.6 mmHg) 14.0 C
101.9 kPa (764.6 mmHg) 14.0 C
101.7 kPa (762.6 mmHg) 13.4 C
101.8 kPa (763.7 mmHg) 13.4 C
101.9 kPa (764.0 mmHg) 13.6 C
101.9 kPa (764.0 mmHg) 13.6 C
101.9 kPa (764.3 mmHg) 13.8 C
101.9 kPa (764.0 mmHg) 13.6 C
101.8 kPa (763.7 mmHg) 13.4 C
101.9 kPa (764.0 mmHg) 13.6 C
101.9 kPa (764.6 mmHg) 14.0 C
101.9 kPa (764.0 mmHg) 13.6 C
101.9 kPa (764.0 mmHg) 13.6 C
101.8 kPa (763.7 mmHg) 13.4 C
101.9 kPa (764.7 mmHg) 13.4 C
101.8 kPa (763.7 mmHg) 13.4 C
101.8 kPa (763.4 mmHg) 13.2 C
101.9 kPa (764.7 mmHg) 13.4 C
101.8 kPa (763.7 mmHg) 13.4 C
101.8 kPa (763.7 mmHg) 13.4 C
101.9 kPa (764.7 mmHg) 13.4 C
102.0 kPa (765.0 mmHg) 13.6 C
101.8 kPa (763.4 mmHg) 13.2 C
101.7 kPa (763.1 mmHg) 13.0 C
101.7 kPa (763.1 mmHg) 13.0 C
101.8 kPa (763.4 mmHg) 13.2 C
101.9 kPa (764.4 mmHg) 13.2 C
101.9 kPa (764.4 mmHg) 13.2 C
101.9 kPa (764.4 mmHg) 13.2 C
101.9 kPa (764.7 mmHg) 13.4 C
101.8 kPa (763.4 mmHg) 13.2 C
101.9 kPa (764.0 mmHg) 13.6 C
101.9 kPa (764.7 mmHg) 13.4 C
101.8 kPa (763.7 mmHg) 13.4 C
101.9 kPa (764.0 mmHg) 13.6 C
102.0 kPa (765.0 mmHg) 13.6 C
101.9 kPa (764.0 mmHg) 13.6 C
102.0 kPa (765.0 mmHg) 13.6 C
102.0 kPa (765.0 mmHg) 13.6 C
101.9 kPa (764.1 mmHg) 13.0 C
101.9 kPa (764.4 mmHg) 13.2 C
102.0 kPa (765.0 mmHg) 13.6 C
102.0 kPa (765.0 mmHg) 13.6 C
102.0 kPa (765.3 mmHg) 13.8 C
102.0 kPa (765.3 mmHg) 13.8 C
102.0 kPa (765.0 mmHg) 13.6 C
101.9 kPa (764.3 mmHg) 13.8 C
102.1 kPa (765.6 mmHg) 14.0 C
102.1 kPa (765.6 mmHg) 14.0 C
101.8 kPa (763.6 mmHg) 14.0 C
102.1 kPa (765.6 mmHg) 14.0 C
102.1 kPa (765.5 mmHg) 14.5 C
101.9 kPa (764.5 mmHg) 14.5 C
102.1 kPa (765.5 mmHg) 14.5 C
102.0 kPa (764.8 mmHg) 14.7 C
101.9 kPa (764.5 mmHg) 14.5 C
102.1 kPa (766.1 mmHg) 14.9 C
102.1 kPa (765.8 mmHg) 14.7 C
102.1 kPa (765.5 mmHg) 14.5 C
101.9 kPa (764.2 mmHg) 14.3 C
102.0 kPa (764.8 mmHg) 14.7 C
102.0 kPa (764.8 mmHg) 14.7 C
101.8 kPa (763.8 mmHg) 14.7 C
101.8 kPa (763.8 mmHg) 14.7 C
101.8 kPa (763.8 mmHg) 14.7 C
101.8 kPa (763.8 mmHg) 14.7 C
102.0 kPa (764.8 mmHg) 14.7 C
102.0 kPa (764.8 mmHg) 14.7 C
102.2 kPa (766.4 mmHg) 15.1 C
101.8 kPa (763.3 mmHg) 15.1 C
102.0 kPa (765.4 mmHg) 15.1 C
102.1 kPa (766.1 mmHg) 14.9 C
102.0 kPa (765.0 mmHg) 15.5 C
102.0 kPa (765.0 mmHg) 15.5 C
102.0 kPa (765.4 mmHg) 15.1 C
101.8 kPa (763.6 mmHg) 15.3 C
101.9 kPa (764.2 mmHg) 15.7 C
101.9 kPa (764.5 mmHg) 15.8 C
101.9 kPa (764.5 mmHg) 15.8 C
101.9 kPa (764.2 mmHg) 15.7 C
101.9 kPa (764.5 mmHg) 15.8 C
102.0 kPa (765.2 mmHg) 16.2 C
102.1 kPa (765.5 mmHg) 16.4 C
102.0 kPa (764.8 mmHg) 16.0 C
102.0 kPa (765.2 mmHg) 16.2 C
102.0 kPa (764.8 mmHg) 16.0 C
102.0 kPa (764.8 mmHg) 16.0 C
102.0 kPa (765.2 mmHg) 16.2 C
102.0 kPa (765.2 mmHg) 16.2 C
101.9 kPa (764.1 mmHg) 16.2 C
102.0 kPa (764.8 mmHg) 16.0 C
101.9 kPa (764.4 mmHg) 16.4 C
102.0 kPa (765.2 mmHg) 16.2 C
101.9 kPa (764.4 mmHg) 16.4 C
102.0 kPa (765.0 mmHg) 16.8 C
102.1 kPa (765.6 mmHg) 17.1 C
102.0 kPa (765.3 mmHg) 17.0 C
102.1 kPa (765.6 mmHg) 17.1 C
102.1 kPa (765.9 mmHg) 17.3 C
101.9 kPa (764.2 mmHg) 17.5 C
102.1 kPa (765.9 mmHg) 17.3 C
101.8 kPa (763.6 mmHg) 17.1 C
102.2 kPa (766.2 mmHg) 17.5 C
102.0 kPa (765.2 mmHg) 17.5 C
102.2 kPa (766.2 mmHg) 17.5 C
102.0 kPa (765.2 mmHg) 17.5 C
101.7 kPa (763.2 mmHg) 17.5 C
101.9 kPa (764.5 mmHg) 17.7 C
102.0 kPa (765.2 mmHg) 17.5 C
102.0 kPa (764.8 mmHg) 17.9 C
102.0 kPa (765.1 mmHg) 18.1 C
102.0 kPa (764.8 mmHg) 17.9 C
101.9 kPa (764.4 mmHg) 18.3 C
101.9 kPa (764.4 mmHg) 18.3 C
101.9 kPa (764.7 mmHg) 18.5 C
101.9 kPa (764.7 mmHg) 18.5 C
102.0 kPa (765.0 mmHg) 18.6 C
102.0 kPa (765.0 mmHg) 18.6 C
101.9 kPa (764.2 mmHg) 18.8 C
101.9 kPa (764.2 mmHg) 18.8 C
102.0 kPa (765.0 mmHg) 18.6 C
101.9 kPa (764.2 mmHg) 18.8 C
102.0 kPa (765.0 mmHg) 18.6 C
101.9 kPa (764.2 mmHg) 18.8 C
101.8 kPa (763.2 mmHg) 18.8 C
101.8 kPa (763.8 mmHg) 19.2 C
101.8 kPa (763.4 mmHg) 19.6 C
101.8 kPa (763.4 mmHg) 19.6 C
101.8 kPa (763.4 mmHg) 19.6 C
101.8 kPa (763.7 mmHg) 19.8 C
101.8 kPa (763.4 mmHg) 19.6 C
101.8 kPa (763.4 mmHg) 19.6 C
101.9 kPa (764.0 mmHg) 20.0 C
101.8 kPa (763.7 mmHg) 19.8 C
101.7 kPa (762.9 mmHg) 20.0 C
101.7 kPa (763.1 mmHg) 20.7 C
101.9 kPa (764.3 mmHg) 21.4 C
101.8 kPa (763.3 mmHg) 21.4 C
102.0 kPa (764.9 mmHg) 21.8 C
101.9 kPa (764.2 mmHg) 22.0 C
101.8 kPa (763.3 mmHg) 22.8 C
101.9 kPa (764.3 mmHg) 22.8 C
101.8 kPa (763.3 mmHg) 21.4 C
101.8 kPa (763.7 mmHg) 22.4 C
101.8 kPa (763.6 mmHg) 22.9 C
101.8 kPa (763.7 mmHg) 23.7 C
101.7 kPa (762.7 mmHg) 23.7 C
102.0 kPa (764.8 mmHg) 23.7 C
101.9 kPa (764.0 mmHg) 23.9 C
101.9 kPa (764.6 mmHg) 24.3 C
101.8 kPa (763.9 mmHg) 24.4 C
101.8 kPa (763.9 mmHg) 24.4 C
101.8 kPa (763.6 mmHg) 25.6 C
101.7 kPa (763.1 mmHg) 25.9 C
101.6 kPa (762.4 mmHg) 26.1 C
101.8 kPa (763.5 mmHg) 26.9 C
101.8 kPa (763.7 mmHg) 27.6 C
101.8 kPa (763.3 mmHg) 28.7 C
101.6 kPa (762.0 mmHg) 28.6 C
101.8 kPa (763.4 mmHg) 29.5 C
101.6 kPa (762.3 mmHg) 27.4 C
101.9 kPa (764.2 mmHg) 28.0 C
101.9 kPa (764.0 mmHg) 27.8 C
101.8 kPa (763.2 mmHg) 28.0 C
101.7 kPa (762.9 mmHg) 26.5 C
101.6 kPa (762.1 mmHg) 28.0 C
101.7 kPa (762.9 mmHg) 27.8 C
101.8 kPa (763.6 mmHg) 25.6 C
101.7 kPa (762.8 mmHg) 24.4 C
101.8 kPa (763.7 mmHg) 23.7 C
101.8 kPa (763.3 mmHg) 22.8 C
101.7 kPa (762.5 mmHg) 22.9 C
101.7 kPa (762.5 mmHg) 22.9 C
101.7 kPa (763.0 mmHg) 22.6 C
101.7 kPa (762.7 mmHg) 22.4 C
101.8 kPa (763.4 mmHg) 22.2 C
101.8 kPa (763.4 mmHg) 22.2 C
101.6 kPa (762.1 mmHg) 22.0 C
101.7 kPa (763.1 mmHg) 22.0 C
101.7 kPa (762.5 mmHg) 21.6 C
101.6 kPa (762.2 mmHg) 21.4 C
101.6 kPa (762.2 mmHg) 21.4 C
101.8 kPa (763.3 mmHg) 21.4 C
101.8 kPa (763.3 mmHg) 21.4 C
101.7 kPa (762.7 mmHg) 21.1 C
101.8 kPa (763.3 mmHg) 21.4 C
101.8 kPa (763.3 mmHg) 21.4 C
101.8 kPa (763.3 mmHg) 21.4 C
101.8 kPa (763.3 mmHg) 21.4 C
101.8 kPa (763.3 mmHg) 21.4 C
101.6 kPa (762.2 mmHg) 21.4 C
101.7 kPa (763.0 mmHg) 21.3 C
101.8 kPa (763.7 mmHg) 21.1 C
101.7 kPa (763.1 mmHg) 20.7 C
101.6 kPa (762.4 mmHg) 20.9 C
101.6 kPa (762.4 mmHg) 20.9 C
101.6 kPa (761.8 mmHg) 20.5 C
101.6 kPa (761.8 mmHg) 20.5 C
101.5 kPa (761.5 mmHg) 20.3 C
101.7 kPa (762.5 mmHg) 20.3 C
101.7 kPa (762.5 mmHg) 20.3 C
101.6 kPa (762.2 mmHg) 20.1 C
101.8 kPa (763.2 mmHg) 20.1 C
101.7 kPa (762.7 mmHg) 19.8 C
101.9 kPa (764.0 mmHg) 20.0 C
101.8 kPa (763.7 mmHg) 19.8 C
101.6 kPa (762.4 mmHg) 19.6 C
101.7 kPa (762.7 mmHg) 19.8 C
101.7 kPa (762.9 mmHg) 20.0 C
101.8 kPa (763.4 mmHg) 19.6 C
101.8 kPa (763.4 mmHg) 19.6 C
101.9 kPa (764.1 mmHg) 19.4 C
101.7 kPa (763.1 mmHg) 19.4 C
101.6 kPa (762.1 mmHg) 19.4 C
101.7 kPa (763.1 mmHg) 19.4 C
101.7 kPa (762.8 mmHg) 19.2 C
101.7 kPa (762.5 mmHg) 19.0 C
101.8 kPa (763.8 mmHg) 19.2 C
102.0 kPa (764.8 mmHg) 19.2 C
101.7 kPa (762.8 mmHg) 19.2 C
101.8 kPa (763.8 mmHg) 19.2 C
101.8 kPa (763.5 mmHg) 19.0 C
101.6 kPa (762.2 mmHg) 18.8 C
101.8 kPa (763.2 mmHg) 18.8 C
101.9 kPa (764.5 mmHg) 19.0 C
101.7 kPa (762.9 mmHg) 18.6 C
101.8 kPa (763.2 mmHg) 18.8 C
101.7 kPa (762.6 mmHg) 18.5 C
101.7 kPa (763.0 mmHg) 18.1 C
101.9 kPa (764.1 mmHg) 18.1 C
101.8 kPa (763.8 mmHg) 17.9 C
101.8 kPa (763.5 mmHg) 17.7 C
101.8 kPa (763.5 mmHg) 17.7 C
101.7 kPa (763.2 mmHg) 17.5 C
101.8 kPa (763.3 mmHg) 17.0 C
101.7 kPa (763.0 mmHg) 16.8 C
101.6 kPa (762.0 mmHg) 16.8 C
101.9 kPa (764.0 mmHg) 16.8 C
101.8 kPa (763.7 mmHg) 16.6 C
102.0 kPa (764.7 mmHg) 16.6 C
101.8 kPa (763.4 mmHg) 16.4 C
101.9 kPa (764.1 mmHg) 16.2 C
101.6 kPa (762.1 mmHg) 16.2 C
101.8 kPa (763.4 mmHg) 16.4 C
101.7 kPa (762.8 mmHg) 16.0 C
101.9 kPa (764.1 mmHg) 16.2 C
101.8 kPa (763.8 mmHg) 16.0 C
101.8 kPa (763.8 mmHg) 16.0 C
101.8 kPa (763.8 mmHg) 16.0 C
101.8 kPa (763.8 mmHg) 16.0 C
101.8 kPa (763.8 mmHg) 16.0 C
101.7 kPa (762.8 mmHg) 16.0 C
101.8 kPa (763.8 mmHg) 16.0 C
101.8 kPa (763.5 mmHg) 15.8 C
101.7 kPa (762.5 mmHg) 15.8 C
101.8 kPa (763.5 mmHg) 15.8 C
101.8 kPa (763.2 mmHg) 15.7 C
101.8 kPa (763.5 mmHg) 15.8 C
101.8 kPa (763.2 mmHg) 15.7 C
101.7 kPa (762.9 mmHg) 15.5 C
101.7 kPa (762.9 mmHg) 15.5 C
101.8 kPa (763.8 mmHg) 16.0 C
101.7 kPa (762.9 mmHg) 15.5 C
101.7 kPa (762.9 mmHg) 15.5 C
101.7 kPa (762.9 mmHg) 15.5 C
101.7 kPa (762.9 mmHg) 15.5 C
101.7 kPa (762.6 mmHg) 15.3 C
101.7 kPa (762.9 mmHg) 15.5 C
101.7 kPa (762.9 mmHg) 15.5 C
101.7 kPa (762.6 mmHg) 15.3 C
101.7 kPa (762.9 mmHg) 15.5 C
101.7 kPa (762.6 mmHg) 15.3 C
101.7 kPa (762.9 mmHg) 15.5 C
101.7 kPa (762.6 mmHg) 15.3 C
101.6 kPa (762.3 mmHg) 15.1 C
101.8 kPa (763.3 mmHg) 15.1 C
101.6 kPa (762.3 mmHg) 15.1 C
101.6 kPa (762.3 mmHg) 15.1 C
101.7 kPa (763.0 mmHg) 14.9 C
101.8 kPa (763.3 mmHg) 15.1 C
101.6 kPa (762.0 mmHg) 14.9 C
101.7 kPa (762.7 mmHg) 14.7 C
101.7 kPa (763.0 mmHg) 14.9 C
101.7 kPa (762.7 mmHg) 14.7 C
101.7 kPa (762.7 mmHg) 14.7 C
101.7 kPa (763.0 mmHg) 14.9 C
101.7 kPa (762.7 mmHg) 14.7 C
101.6 kPa (762.0 mmHg) 14.9 C
101.7 kPa (762.7 mmHg) 14.7 C
101.6 kPa (762.4 mmHg) 14.5 C
101.6 kPa (762.1 mmHg) 14.3 C
101.6 kPa (762.4 mmHg) 14.5 C
101.6 kPa (762.1 mmHg) 14.3 C
101.6 kPa (762.4 mmHg) 14.5 C
101.8 kPa (763.4 mmHg) 14.5 C
101.6 kPa (762.1 mmHg) 14.3 C
101.7 kPa (763.1 mmHg) 14.3 C
101.6 kPa (762.1 mmHg) 14.3 C
101.5 kPa (761.5 mmHg) 14.0 C
101.6 kPa (762.1 mmHg) 14.3 C
101.5 kPa (761.5 mmHg) 14.0 C
101.6 kPa (761.8 mmHg) 14.2 C
101.6 kPa (762.1 mmHg) 14.3 C
101.5 kPa (761.5 mmHg) 14.0 C
101.6 kPa (761.8 mmHg) 14.2 C
101.6 kPa (761.8 mmHg) 14.2 C
101.6 kPa (762.1 mmHg) 14.3 C
101.5 kPa (761.1 mmHg) 14.3 C
101.5 kPa (761.5 mmHg) 14.0 C
101.5 kPa (761.5 mmHg) 14.0 C
101.5 kPa (761.2 mmHg) 13.8 C
101.5 kPa (761.2 mmHg) 13.8 C
101.5 kPa (761.5 mmHg) 14.0 C
101.6 kPa (762.2 mmHg) 13.8 C
101.5 kPa (761.5 mmHg) 14.0 C
101.4 kPa (760.9 mmHg) 13.6 C
101.6 kPa (761.9 mmHg) 13.6 C
101.4 kPa (760.9 mmHg) 13.6 C
101.6 kPa (761.9 mmHg) 13.6 C
101.4 kPa (760.9 mmHg) 13.6 C
101.4 kPa (760.9 mmHg) 13.6 C
101.5 kPa (761.2 mmHg) 13.8 C
101.5 kPa (761.2 mmHg) 13.8 C
101.6 kPa (762.2 mmHg) 13.8 C
101.5 kPa (761.5 mmHg) 14.0 C
101.5 kPa (761.2 mmHg) 13.8 C
101.5 kPa (761.5 mmHg) 14.0 C
101.5 kPa (761.5 mmHg) 14.0 C
101.5 kPa (761.5 mmHg) 14.0 C
101.4 kPa (760.5 mmHg) 14.0 C
101.5 kPa (761.5 mmHg) 14.0 C
101.6 kPa (762.1 mmHg) 14.3 C
101.5 kPa (761.4 mmHg) 14.5 C
101.7 kPa (762.7 mmHg) 14.7 C
101.6 kPa (761.7 mmHg) 14.7 C
101.6 kPa (761.7 mmHg) 14.7 C
101.5 kPa (761.3 mmHg) 15.1 C
101.6 kPa (762.3 mmHg) 15.1 C
101.5 kPa (761.6 mmHg) 15.3 C
101.6 kPa (761.9 mmHg) 15.5 C
101.6 kPa (761.9 mmHg) 15.5 C
101.7 kPa (762.5 mmHg) 15.8 C
101.6 kPa (762.2 mmHg) 15.7 C
101.4 kPa (760.5 mmHg) 15.8 C
101.6 kPa (761.8 mmHg) 16.0 C
101.4 kPa (760.8 mmHg) 16.0 C
101.4 kPa (760.8 mmHg) 16.0 C
101.5 kPa (761.1 mmHg) 16.2 C
101.5 kPa (761.1 mmHg) 16.2 C
101.5 kPa (761.1 mmHg) 16.2 C
101.5 kPa (761.1 mmHg) 16.2 C
101.5 kPa (761.1 mmHg) 16.2 C
101.5 kPa (761.7 mmHg) 16.6 C
101.4 kPa (760.6 mmHg) 16.6 C
101.5 kPa (761.7 mmHg) 16.6 C
101.5 kPa (761.7 mmHg) 16.6 C
101.6 kPa (762.0 mmHg) 16.8 C
101.6 kPa (762.0 mmHg) 16.8 C
101.6 kPa (762.0 mmHg) 16.8 C
101.6 kPa (762.3 mmHg) 17.0 C
101.5 kPa (761.2 mmHg) 17.0 C
101.4 kPa (760.2 mmHg) 17.0 C
101.4 kPa (760.2 mmHg) 17.0 C
101.4 kPa (760.2 mmHg) 17.0 C
101.4 kPa (760.8 mmHg) 17.3 C
101.5 kPa (761.1 mmHg) 17.5 C
101.5 kPa (761.1 mmHg) 17.5 C
101.5 kPa (761.1 mmHg) 17.5 C
101.2 kPa (759.1 mmHg) 17.5 C
101.2 kPa (759.1 mmHg) 17.5 C
101.3 kPa (759.7 mmHg) 17.9 C
101.3 kPa (760.0 mmHg) 18.1 C
101.2 kPa (759.4 mmHg) 17.7 C
101.3 kPa (760.0 mmHg) 18.1 C
101.4 kPa (760.3 mmHg) 18.3 C
101.2 kPa (759.2 mmHg) 18.3 C
101.4 kPa (760.6 mmHg) 18.5 C
101.2 kPa (758.8 mmHg) 18.6 C
101.3 kPa (760.1 mmHg) 18.8 C
101.2 kPa (759.4 mmHg) 19.0 C
101.2 kPa (759.4 mmHg) 19.0 C
101.3 kPa (760.1 mmHg) 18.8 C
101.2 kPa (759.4 mmHg) 19.0 C
101.2 kPa (759.4 mmHg) 19.0 C
101.4 kPa (760.3 mmHg) 19.6 C
101.3 kPa (759.7 mmHg) 19.2 C
101.4 kPa (760.6 mmHg) 19.8 C
101.2 kPa (759.3 mmHg) 19.6 C
101.4 kPa (760.3 mmHg) 19.6 C
101.3 kPa (759.6 mmHg) 19.8 C
101.4 kPa (760.6 mmHg) 19.8 C
101.4 kPa (760.3 mmHg) 19.6 C
101.1 kPa (758.2 mmHg) 19.6 C
101.3 kPa (759.6 mmHg) 19.8 C
101.3 kPa (759.9 mmHg) 20.0 C
101.4 kPa (760.5 mmHg) 20.3 C
101.2 kPa (758.8 mmHg) 20.0 C
101.2 kPa (759.4 mmHg) 20.3 C
101.1 kPa (758.4 mmHg) 20.3 C
101.2 kPa (759.4 mmHg) 20.3 C
101.1 kPa (758.7 mmHg) 20.5 C
101.2 kPa (759.0 mmHg) 20.7 C
101.2 kPa (759.3 mmHg) 20.9 C
101.2 kPa (759.0 mmHg) 20.7 C
101.2 kPa (759.3 mmHg) 20.9 C
101.2 kPa (759.0 mmHg) 20.7 C
101.3 kPa (759.6 mmHg) 21.1 C
101.2 kPa (758.8 mmHg) 21.3 C
101.1 kPa (758.1 mmHg) 21.4 C
101.1 kPa (758.1 mmHg) 21.4 C
101.2 kPa (758.8 mmHg) 21.3 C
101.3 kPa (760.2 mmHg) 21.4 C
101.2 kPa (759.1 mmHg) 21.4 C
101.0 kPa (757.7 mmHg) 21.8 C
101.0 kPa (757.4 mmHg) 21.6 C
101.2 kPa (759.0 mmHg) 22.0 C
101.1 kPa (758.0 mmHg) 22.0 C
101.1 kPa (758.0 mmHg) 22.0 C
101.1 kPa (758.0 mmHg) 22.0 C
101.2 kPa (759.0 mmHg) 22.0 C
101.0 kPa (757.5 mmHg) 22.4 C
100.9 kPa (756.9 mmHg) 22.0 C
101.0 kPa (757.2 mmHg) 22.2 C
101.1 kPa (758.7 mmHg) 23.1 C
101.0 kPa (757.2 mmHg) 23.5 C
101.0 kPa (757.8 mmHg) 23.9 C
101.1 kPa (758.4 mmHg) 24.3 C
100.9 kPa (756.4 mmHg) 23.7 C
100.8 kPa (756.3 mmHg) 24.3 C
101.1 kPa (758.4 mmHg) 24.3 C
100.9 kPa (756.9 mmHg) 24.6 C
101.0 kPa (757.5 mmHg) 25.0 C
101.0 kPa (757.5 mmHg) 25.0 C
100.9 kPa (757.0 mmHg) 25.4 C
100.8 kPa (756.4 mmHg) 25.0 C
100.9 kPa (757.0 mmHg) 25.4 C
100.9 kPa (756.7 mmHg) 25.2 C
101.0 kPa (757.3 mmHg) 25.6 C
100.8 kPa (755.8 mmHg) 25.9 C
100.9 kPa (756.5 mmHg) 25.7 C
101.0 kPa (757.6 mmHg) 25.7 C
101.0 kPa (757.2 mmHg) 26.9 C
100.9 kPa (756.9 mmHg) 28.0 C
101.0 kPa (757.8 mmHg) 28.6 C
101.1 kPa (758.5 mmHg) 29.7 C
100.8 kPa (756.0 mmHg) 30.8 C
100.9 kPa (756.8 mmHg) 31.4 C
100.8 kPa (756.2 mmHg) 30.2 C
100.8 kPa (756.0 mmHg) 28.7 C
100.8 kPa (756.2 mmHg) 30.2 C
101.0 kPa (757.2 mmHg) 30.2 C
101.0 kPa (757.7 mmHg) 29.9 C
100.8 kPa (756.2 mmHg) 30.2 C
101.0 kPa (757.2 mmHg) 30.2 C
100.9 kPa (757.1 mmHg) 29.5 C
100.8 kPa (756.4 mmHg) 28.4 C
100.8 kPa (756.2 mmHg) 26.9 C
100.8 kPa (755.9 mmHg) 26.7 C
100.8 kPa (755.8 mmHg) 25.9 C
100.8 kPa (756.3 mmHg) 25.6 C
100.7 kPa (755.5 mmHg) 25.7 C
100.6 kPa (754.6 mmHg) 25.2 C
100.8 kPa (755.8 mmHg) 24.6 C
100.8 kPa (756.1 mmHg) 24.8 C
100.8 kPa (756.1 mmHg) 24.8 C
100.9 kPa (756.9 mmHg) 24.6 C
100.8 kPa (756.3 mmHg) 24.3 C
100.8 kPa (756.3 mmHg) 24.3 C
100.9 kPa (757.0 mmHg) 24.1 C
100.9 kPa (756.7 mmHg) 23.9 C
100.9 kPa (756.7 mmHg) 23.9 C
100.8 kPa (756.2 mmHg) 23.5 C
100.8 kPa (756.2 mmHg) 23.5 C
100.8 kPa (756.2 mmHg) 23.5 C
101.0 kPa (757.2 mmHg) 23.5 C
100.9 kPa (756.6 mmHg) 23.1 C
100.7 kPa (755.3 mmHg) 22.9 C
100.7 kPa (755.3 mmHg) 22.9 C
100.8 kPa (756.0 mmHg) 22.8 C
100.8 kPa (756.0 mmHg) 22.8 C
100.7 kPa (755.3 mmHg) 22.9 C
100.7 kPa (755.3 mmHg) 22.9 C
100.7 kPa (755.3 mmHg) 22.9 C
100.8 kPa (756.0 mmHg) 22.8 C
100.7 kPa (755.0 mmHg) 22.8 C
101.1 kPa (758.1 mmHg) 22.8 C
100.7 kPa (755.1 mmHg) 22.2 C
100.7 kPa (755.4 mmHg) 22.4 C
100.8 kPa (756.2 mmHg) 22.2 C
100.8 kPa (756.2 mmHg) 22.2 C
100.8 kPa (756.2 mmHg) 22.2 C
100.9 kPa (756.5 mmHg) 22.4 C
100.8 kPa (755.9 mmHg) 22.0 C
100.8 kPa (756.2 mmHg) 22.2 C
101.0 kPa (757.2 mmHg) 22.2 C
100.9 kPa (756.9 mmHg) 22.0 C
100.9 kPa (756.9 mmHg) 22.0 C
100.9 kPa (756.9 mmHg) 22.0 C
100.8 kPa (755.9 mmHg) 22.0 C
100.8 kPa (755.9 mmHg) 22.0 C
100.8 kPa (755.9 mmHg) 22.0 C
100.9 kPa (756.6 mmHg) 21.8 C
100.9 kPa (756.9 mmHg) 22.0 C
100.8 kPa (755.9 mmHg) 22.0 C
100.9 kPa (756.9 mmHg) 22.0 C
100.7 kPa (755.3 mmHg) 21.6 C
100.8 kPa (756.3 mmHg) 21.6 C
100.8 kPa (756.3 mmHg) 21.6 C
100.7 kPa (755.0 mmHg) 21.4 C
100.7 kPa (755.0 mmHg) 21.4 C
100.7 kPa (755.0 mmHg) 21.4 C
100.8 kPa (756.0 mmHg) 21.4 C
100.7 kPa (755.4 mmHg) 21.1 C
100.8 kPa (755.7 mmHg) 21.3 C
100.6 kPa (754.7 mmHg) 21.3 C
100.7 kPa (755.1 mmHg) 20.9 C
100.7 kPa (755.4 mmHg) 21.1 C
100.8 kPa (756.2 mmHg) 20.9 C
100.6 kPa (754.6 mmHg) 20.5 C
100.8 kPa (755.9 mmHg) 20.7 C
100.7 kPa (755.6 mmHg) 20.5 C
100.6 kPa (754.3 mmHg) 20.3 C
100.7 kPa (755.3 mmHg) 20.3 C
100.7 kPa (755.3 mmHg) 20.3 C
100.7 kPa (755.3 mmHg) 20.3 C
100.7 kPa (755.3 mmHg) 20.3 C
100.7 kPa (755.3 mmHg) 20.3 C
100.8 kPa (756.0 mmHg) 20.1 C
100.6 kPa (754.7 mmHg) 20.0 C
100.7 kPa (755.4 mmHg) 19.8 C
100.7 kPa (755.1 mmHg) 19.6 C
100.7 kPa (755.4 mmHg) 19.8 C
101.0 kPa (757.2 mmHg) 19.6 C
100.8 kPa (756.2 mmHg) 19.6 C
100.8 kPa (755.9 mmHg) 19.4 C
100.8 kPa (755.9 mmHg) 19.4 C
100.6 kPa (754.8 mmHg) 19.4 C
100.6 kPa (754.8 mmHg) 19.4 C
100.8 kPa (755.9 mmHg) 19.4 C
100.7 kPa (755.3 mmHg) 19.0 C
100.7 kPa (755.6 mmHg) 19.2 C
100.8 kPa (756.0 mmHg) 18.8 C
100.7 kPa (755.3 mmHg) 19.0 C
100.7 kPa (755.3 mmHg) 19.0 C
100.7 kPa (755.3 mmHg) 19.0 C
100.7 kPa (755.3 mmHg) 19.0 C
100.8 kPa (756.3 mmHg) 19.0 C
100.7 kPa (755.3 mmHg) 19.0 C
100.9 kPa (756.6 mmHg) 19.2 C
100.7 kPa (755.3 mmHg) 19.0 C
100.7 kPa (755.0 mmHg) 18.8 C
100.7 kPa (755.0 mmHg) 18.8 C
100.7 kPa (755.0 mmHg) 18.8 C
100.6 kPa (754.7 mmHg) 18.6 C
100.7 kPa (755.4 mmHg) 18.5 C
100.6 kPa (754.4 mmHg) 18.5 C
100.8 kPa (756.0 mmHg) 18.8 C
100.6 kPa (754.7 mmHg) 18.6 C
100.8 kPa (755.7 mmHg) 18.6 C
100.7 kPa (755.0 mmHg) 18.8 C
100.6 kPa (754.4 mmHg) 18.5 C
100.6 kPa (754.4 mmHg) 18.5 C
100.6 kPa (754.7 mmHg) 18.6 C
100.7 kPa (755.4 mmHg) 18.5 C
100.7 kPa (755.1 mmHg) 18.3 C
100.6 kPa (754.7 mmHg) 18.6 C
100.8 kPa (755.7 mmHg) 18.6 C
100.6 kPa (754.4 mmHg) 18.5 C
100.7 kPa (755.4 mmHg) 18.5 C
100.6 kPa (754.4 mmHg) 18.5 C
100.7 kPa (755.1 mmHg) 18.3 C
100.7 kPa (755.1 mmHg) 18.3 C
100.7 kPa (755.4 mmHg) 18.5 C
100.5 kPa (754.1 mmHg) 18.3 C
100.6 kPa (754.5 mmHg) 17.9 C
100.7 kPa (755.1 mmHg) 18.3 C
100.7 kPa (755.1 mmHg) 18.3 C
100.5 kPa (753.8 mmHg) 18.1 C
100.5 kPa (753.8 mmHg) 18.1 C
100.6 kPa (754.5 mmHg) 17.9 C
100.5 kPa (753.8 mmHg) 18.1 C
100.5 kPa (753.8 mmHg) 18.1 C
100.6 kPa (754.2 mmHg) 17.7 C
100.6 kPa (754.5 mmHg) 17.9 C
100.6 kPa (754.8 mmHg) 18.1 C
100.5 kPa (753.8 mmHg) 18.1 C
100.5 kPa (753.5 mmHg) 17.9 C
100.6 kPa (754.5 mmHg) 17.9 C
100.6 kPa (754.2 mmHg) 17.7 C
100.5 kPa (753.8 mmHg) 18.1 C
100.5 kPa (753.5 mmHg) 17.9 C
100.5 kPa (753.8 mmHg) 18.1 C
100.5 kPa (753.5 mmHg) 17.9 C
100.5 kPa (753.8 mmHg) 18.1 C
100.6 kPa (754.2 mmHg) 17.7 C
100.6 kPa (754.5 mmHg) 17.9 C
100.5 kPa (754.1 mmHg) 18.3 C
100.7 kPa (755.1 mmHg) 18.3 C
100.5 kPa (753.8 mmHg) 18.1 C
100.6 kPa (754.5 mmHg) 17.9 C
100.2 kPa (751.8 mmHg) 18.1 C
100.6 kPa (754.5 mmHg) 17.9 C
100.6 kPa (754.5 mmHg) 17.9 C
100.6 kPa (754.2 mmHg) 17.7 C
100.4 kPa (753.2 mmHg) 17.7 C
100.4 kPa (753.2 mmHg) 17.7 C
100.4 kPa (753.4 mmHg) 17.1 C
100.5 kPa (753.9 mmHg) 17.5 C
100.6 kPa (754.2 mmHg) 17.7 C
100.6 kPa (754.5 mmHg) 17.9 C
100.6 kPa (754.2 mmHg) 17.7 C
100.4 kPa (753.2 mmHg) 17.7 C
100.4 kPa (753.2 mmHg) 17.7 C
100.6 kPa (754.2 mmHg) 17.7 C
100.6 kPa (754.2 mmHg) 17.7 C
100.4 kPa (753.2 mmHg) 17.7 C
100.5 kPa (753.9 mmHg) 17.5 C
100.4 kPa (752.9 mmHg) 17.5 C
100.6 kPa (754.2 mmHg) 17.7 C
100.6 kPa (754.2 mmHg) 17.7 C
100.6 kPa (754.2 mmHg) 17.7 C
100.6 kPa (754.2 mmHg) 17.7 C
100.4 kPa (753.2 mmHg) 17.7 C
100.4 kPa (753.4 mmHg) 17.1 C
100.3 kPa (752.5 mmHg) 16.6 C
100.3 kPa (752.5 mmHg) 16.6 C
100.4 kPa (753.2 mmHg) 16.4 C
100.6 kPa (754.2 mmHg) 16.4 C
100.4 kPa (752.8 mmHg) 16.8 C
100.6 kPa (754.8 mmHg) 16.8 C
100.5 kPa (753.9 mmHg) 16.2 C
100.5 kPa (753.5 mmHg) 16.6 C
100.4 kPa (752.9 mmHg) 16.2 C
100.3 kPa (752.5 mmHg) 16.6 C
100.5 kPa (753.8 mmHg) 16.8 C
100.5 kPa (753.5 mmHg) 16.6 C
100.6 kPa (754.8 mmHg) 16.8 C
100.4 kPa (753.4 mmHg) 17.1 C
100.4 kPa (752.8 mmHg) 16.8 C
100.5 kPa (753.8 mmHg) 16.8 C
100.6 kPa (754.5 mmHg) 16.6 C
100.4 kPa (752.8 mmHg) 16.8 C
100.6 kPa (754.8 mmHg) 16.8 C
100.5 kPa (753.8 mmHg) 16.8 C
100.4 kPa (752.8 mmHg) 16.8 C
100.5 kPa (753.8 mmHg) 16.8 C
100.5 kPa (754.1 mmHg) 17.0 C
100.6 kPa (754.2 mmHg) 16.4 C
100.4 kPa (752.8 mmHg) 16.8 C
100.5 kPa (753.8 mmHg) 16.8 C
100.6 kPa (754.7 mmHg) 17.3 C
100.4 kPa (753.4 mmHg) 17.1 C
100.5 kPa (754.1 mmHg) 17.0 C
100.5 kPa (753.6 mmHg) 17.3 C
100.3 kPa (752.6 mmHg) 17.3 C
100.5 kPa (753.6 mmHg) 17.3 C
100.5 kPa (753.9 mmHg) 17.5 C
100.4 kPa (753.4 mmHg) 17.1 C
100.4 kPa (753.4 mmHg) 17.1 C
100.4 kPa (752.8 mmHg) 16.8 C
100.6 kPa (754.7 mmHg) 17.3 C
100.7 kPa (755.1 mmHg) 17.0 C
100.5 kPa (754.1 mmHg) 17.0 C
100.4 kPa (753.4 mmHg) 17.1 C
100.4 kPa (753.2 mmHg) 17.7 C
100.4 kPa (753.1 mmHg) 17.0 C
100.4 kPa (753.1 mmHg) 17.0 C
100.5 kPa (754.1 mmHg) 17.0 C
100.5 kPa (753.6 mmHg) 17.3 C
100.4 kPa (752.8 mmHg) 16.8 C
100.4 kPa (753.4 mmHg) 17.1 C
100.5 kPa (753.5 mmHg) 16.6 C
100.4 kPa (752.9 mmHg) 16.2 C
100.5 kPa (753.6 mmHg) 16.0 C
100.4 kPa (753.3 mmHg) 15.8 C
100.5 kPa (753.9 mmHg) 16.2 C
100.6 kPa (754.5 mmHg) 16.6 C
100.6 kPa (754.6 mmHg) 16.0 C
100.6 kPa (754.6 mmHg) 16.0 C
100.7 kPa (755.7 mmHg) 16.0 C
100.6 kPa (754.9 mmHg) 16.2 C
100.6 kPa (754.6 mmHg) 16.0 C
100.6 kPa (754.3 mmHg) 15.8 C
100.6 kPa (754.6 mmHg) 16.0 C
100.6 kPa (754.9 mmHg) 16.2 C
100.6 kPa (754.9 mmHg) 16.2 C
100.5 kPa (753.9 mmHg) 16.2 C
100.6 kPa (754.6 mmHg) 16.0 C
100.6 kPa (754.2 mmHg) 16.4 C
100.4 kPa (753.2 mmHg) 16.4 C
100.6 kPa (754.2 mmHg) 16.4 C
100.6 kPa (754.5 mmHg) 16.6 C
100.5 kPa (753.9 mmHg) 16.2 C
100.7 kPa (755.2 mmHg) 16.4 C
100.6 kPa (754.5 mmHg) 16.6 C
100.6 kPa (754.9 mmHg) 16.2 C
100.5 kPa (753.9 mmHg) 16.2 C
100.5 kPa (753.5 mmHg) 16.6 C
100.6 kPa (754.5 mmHg) 16.6 C
100.5 kPa (753.5 mmHg) 16.6 C
100.6 kPa (754.5 mmHg) 16.6 C
100.5 kPa (753.8 mmHg) 16.8 C
100.5 kPa (754.1 mmHg) 17.0 C
100.6 kPa (754.2 mmHg) 17.7 C
100.6 kPa (754.5 mmHg) 17.9 C
100.7 kPa (755.1 mmHg) 18.3 C
100.6 kPa (754.8 mmHg) 18.1 C
100.7 kPa (755.1 mmHg) 18.3 C
100.5 kPa (754.1 mmHg) 18.3 C
100.6 kPa (754.8 mmHg) 18.1 C
100.6 kPa (754.3 mmHg) 19.0 C
100.6 kPa (754.4 mmHg) 19.8 C
100.6 kPa (754.6 mmHg) 19.2 C
100.7 kPa (755.4 mmHg) 18.5 C
100.6 kPa (754.2 mmHg) 17.7 C
100.6 kPa (754.2 mmHg) 16.4 C
100.5 kPa (753.9 mmHg) 16.2 C
100.8 kPa (756.0 mmHg) 17.5 C
100.4 kPa (753.1 mmHg) 17.0 C
100.7 kPa (755.0 mmHg) 17.5 C
100.5 kPa (753.8 mmHg) 16.8 C
100.5 kPa (753.9 mmHg) 16.2 C
100.6 kPa (754.9 mmHg) 16.2 C
100.6 kPa (754.4 mmHg) 17.1 C
100.6 kPa (754.5 mmHg) 16.6 C
100.7 kPa (755.5 mmHg) 16.6 C
100.7 kPa (755.7 mmHg) 16.0 C
100.6 kPa (754.3 mmHg) 15.8 C
100.7 kPa (755.7 mmHg) 16.0 C
100.6 kPa (754.6 mmHg) 16.0 C
100.8 kPa (756.1 mmHg) 15.7 C
100.7 kPa (755.1 mmHg) 15.7 C
100.6 kPa (754.3 mmHg) 15.8 C
100.7 kPa (755.1 mmHg) 15.7 C
100.8 kPa (755.8 mmHg) 15.5 C
100.7 kPa (755.5 mmHg) 15.3 C
100.7 kPa (755.5 mmHg) 15.3 C
100.7 kPa (755.2 mmHg) 15.1 C
100.6 kPa (754.6 mmHg) 14.7 C
100.8 kPa (755.9 mmHg) 14.9 C
100.8 kPa (755.9 mmHg) 14.9 C
100.8 kPa (756.3 mmHg) 14.5 C
100.7 kPa (755.6 mmHg) 14.7 C
100.7 kPa (755.6 mmHg) 14.7 C
100.7 kPa (755.6 mmHg) 14.7 C
100.9 kPa (756.6 mmHg) 14.7 C
100.9 kPa (756.6 mmHg) 14.7 C
100.8 kPa (756.0 mmHg) 14.3 C
100.8 kPa (756.3 mmHg) 14.5 C
100.8 kPa (756.0 mmHg) 14.3 C
100.7 kPa (755.3 mmHg) 14.5 C
100.7 kPa (755.3 mmHg) 14.5 C
100.7 kPa (755.3 mmHg) 14.5 C
100.8 kPa (756.2 mmHg) 15.1 C
100.9 kPa (756.6 mmHg) 14.7 C
100.7 kPa (755.6 mmHg) 14.7 C
100.8 kPa (756.3 mmHg) 14.5 C
100.8 kPa (755.9 mmHg) 14.9 C
100.7 kPa (755.6 mmHg) 14.7 C
100.7 kPa (755.6 mmHg) 14.7 C
100.7 kPa (755.6 mmHg) 14.7 C
100.9 kPa (756.6 mmHg) 14.7 C
101.0 kPa (757.2 mmHg) 15.1 C
100.6 kPa (754.8 mmHg) 15.5 C
100.9 kPa (757.1 mmHg) 15.7 C
100.8 kPa (756.4 mmHg) 15.8 C
100.8 kPa (756.4 mmHg) 15.8 C
100.8 kPa (755.8 mmHg) 15.5 C
100.9 kPa (756.5 mmHg) 15.3 C
100.7 kPa (755.5 mmHg) 15.3 C
100.8 kPa (755.8 mmHg) 15.5 C
100.6 kPa (754.8 mmHg) 15.5 C
100.9 kPa (756.8 mmHg) 15.5 C
100.8 kPa (756.1 mmHg) 15.7 C
100.8 kPa (755.8 mmHg) 15.5 C
100.9 kPa (756.8 mmHg) 15.5 C
100.8 kPa (756.1 mmHg) 15.7 C
100.9 kPa (756.8 mmHg) 15.5 C
100.9 kPa (756.8 mmHg) 15.5 C
100.8 kPa (755.8 mmHg) 15.5 C
100.9 kPa (756.8 mmHg) 15.5 C
100.9 kPa (756.8 mmHg) 15.5 C
100.9 kPa (756.8 mmHg) 15.5 C
101.0 kPa (757.5 mmHg) 15.3 C
100.9 kPa (756.5 mmHg) 15.3 C
101.0 kPa (757.2 mmHg) 15.1 C
101.1 kPa (758.5 mmHg) 15.3 C
101.0 kPa (757.5 mmHg) 15.3 C
101.0 kPa (757.5 mmHg) 15.3 C
100.8 kPa (756.2 mmHg) 15.1 C
101.0 kPa (757.5 mmHg) 15.3 C
100.9 kPa (756.6 mmHg) 14.7 C
100.9 kPa (756.9 mmHg) 14.9 C
100.8 kPa (755.9 mmHg) 14.9 C
101.0 kPa (757.2 mmHg) 15.1 C
100.9 kPa (756.9 mmHg) 14.9 C
101.1 kPa (758.2 mmHg) 15.1 C
101.0 kPa (757.2 mmHg) 15.1 C
101.0 kPa (757.6 mmHg) 14.7 C
101.0 kPa (757.6 mmHg) 14.7 C
100.9 kPa (756.6 mmHg) 14.7 C
101.1 kPa (757.9 mmHg) 14.9 C
101.1 kPa (758.2 mmHg) 15.1 C
101.1 kPa (757.9 mmHg) 14.9 C
101.0 kPa (757.2 mmHg) 15.1 C
101.0 kPa (757.3 mmHg) 14.5 C
100.8 kPa (756.3 mmHg) 14.5 C
101.0 kPa (757.3 mmHg) 14.5 C
100.8 kPa (756.3 mmHg) 14.5 C
101.1 kPa (758.4 mmHg) 14.5 C
100.9 kPa (756.9 mmHg) 14.9 C
100.9 kPa (756.6 mmHg) 14.7 C
101.1 kPa (758.7 mmHg) 14.7 C
101.0 kPa (757.3 mmHg) 14.5 C
101.0 kPa (757.6 mmHg) 14.7 C
101.1 kPa (758.2 mmHg) 15.1 C
101.1 kPa (757.9 mmHg) 14.9 C
101.1 kPa (758.2 mmHg) 15.1 C
101.1 kPa (758.2 mmHg) 15.1 C
101.1 kPa (758.2 mmHg) 15.1 C
101.1 kPa (758.2 mmHg) 15.1 C
101.1 kPa (758.2 mmHg) 15.1 C
